Jun 2008 Semester,2008,2008-6
Sep 2008 Semester,2008,2008-9
Nov 2009 Semester,2009,2009-11
Feb 2009 Semester,2009,2009-2
Jun 2009 Semester,2009,2009-6
Aug 2009 Semester,2009,2009-8
Sep 2009 Semester,2009,2009-9
Jan 2010 Semester,2010,2010-1
Oct 2010 Semester,2010,2010-10
Nov 2010 Semester,2010,2010-11
Dec 2010 Semester,2010,2010-12
Feb 2010 Semester,2010,2010-2
Mar 2010 Semester,2010,2010-3
May 2010 Semester,2010,2010-5
Jun 2010 Semester,2010,2010-6
Jul 2010 Semester,2010,2010-7
Aug 2010 Semester,2010,2010-8
Sep 2010 Semester,2010,2010-9
Jan 2011 Semester,2011,2011-1
Oct 2011 Semester,2011,2011-10
Nov 2011 Semester,2011,2011-11
Dec 2011 Semester,2011,2011-12
Feb 2011 Semester,2011,2011-2
Mar 2011 Semester,2011,2011-3
Apr 2011 Semester,2011,2011-4
May 2011 Semester,2011,2011-5
Jun 2011 Semester,2011,2011-6
Jul 2011 Semester,2011,2011-7
Aug 2011 Semester,2011,2011-8
Sep 2011 Semester,2011,2011-9
Jan 2012 Semester,2012,2012-1
Oct 2012 Semester,2012,2012-10
Nov 2012 Semester,2012,2012-11
Dec 2012 Semester,2012,2012-12
Feb 2012 Semester,2012,2012-2
Mar 2012 Semester,2012,2012-3
Apr 2012 Semester,2012,2012-4
May 2012 Semester,2012,2012-5
Jun 2012 Semester,2012,2012-6
Jul 2012 Semester,2012,2012-7
Aug 2012 Semester,2012,2012-8
Sep 2012 Semester,2012,2012-9
Jan 2013 Semester,2013,2013-1
Oct 2013 Semester,2013,2013-10
Nov 2013 Semester,2013,2013-11
Dec 2013 Semester,2013,2013-12
Feb 2013 Semester,2013,2013-2
Mar 2013 Semester,2013,2013-3
Apr 2013 Semester,2013,2013-4
May 2013 Semester,2013,2013-5
Jun 2013 Semester,2013,2013-6
Jul 2013 Semester,2013,2013-7
Aug 2013 Semester,2013,2013-8
Sep 2013 Semester,2013,2013-9
Jan 2014 Semester,2014,2014-1
Oct 2014 Semester,2014,2014-10
Dec 2014 Semester,2014,2014-12
Feb 2014 Semester,2014,2014-2
Mar 2014 Semester,2014,2014-3
Apr 2014 Semester,2014,2014-4
May 2014 Semester,2014,2014-5
Jun 2014 Semester,2014,2014-6
Jul 2014 Semester,2014,2014-7
Aug 2014 Semester,2014,2014-8
Sep 2014 Semester,2014,2014-9
Jan 2015 Semester,2015,2015-1
Oct 2015 Semester,2015,2015-10
Dec 2015 Semester,2015,2015-12
Feb 2015 Semester,2015,2015-2
Apr 2015 Semester,2015,2015-4
May 2015 Semester,2015,2015-5
Jun 2015 Semester,2015,2015-6
Jul 2015 Semester,2015,2015-7
Aug 2015 Semester,2015,2015-8
Sep 2015 Semester,2015,2015-9
Jan 2016 Semester,2016,2016-1
Oct 2016 Semester,2016,2016-10
Dec 2016 Semester,2016,2016-12
Feb 2016 Semester,2016,2016-2
Apr 2016 Semester,2016,2016-4
May 2016 Semester,2016,2016-5
Jun 2016 Semester,2016,2016-6
Jul 2016 Semester,2016,2016-7
Aug 2016 Semester,2016,2016-8
Sep 2016 Semester,2016,2016-9
Jan 2017 Semester,2017,2017-1
Oct 2017 Semester,2017,2017-10
Dec 2017 Semester,2017,2017-12
Feb 2017 Semester,2017,2017-2
May 2017 Semester,2017,2017-5
Jun 2017 Semester,2017,2017-6
Jul 2017 Semester,2017,2017-7
Sep 2017 Semester,2017,2017-9
Jan 2018 Semester,2018,2018-1
Feb 2018 Semester,2018,2018-2
May 2018 Semester,2018,2018-5
Sep 2018 Semester,2018,2018-9
Jan 2019 Semester,2019,2019-1
May 2019 Semester,2019,2019-5
Sep 2019 Semester,2019,2019-9
Jan 2020 Semester,2020,2020-1
May 2020 Semester,2020,2020-5
Sep 2020 Semester,2020,2020-9
Jan 2021 Semester,2021,2021-1
